<svg xmlns="http://www.w3.org/2000/svg" width="22.007" height="22.077" viewBox="0 0 22.007 22.077">
  <g id="user-icon" transform="translate(-1254.994 20.391)">
    <ellipse id="Ellipse_8" data-name="Ellipse 8" cx="5.113" cy="5.113" rx="5.113" ry="5.113" transform="translate(1260.961 -20.391)" fill="#e30613"/>
    <path id="Rectangle_6" data-name="Rectangle 6" d="M11,0h0a11,11,0,0,1,11,11v.778a0,0,0,0,1,0,0H0a0,0,0,0,1,0,0V11A11,11,0,0,1,11,0Z" transform="translate(1254.994 -10.095)" fill="#e30613"/>
  </g>
</svg>
