2019-06-24T12:10:08-07:00 CRITICAL syntax error, unexpected '=>' (T_DOUBLE_ARROW) в /var/www/kryl/data/www/demoproject.company/wp-content/themes/ShopProm/page-shop.php на строке 44

2019-06-24T12:10:29-07:00 CRITICAL syntax error, unexpected '=>' (T_DOUBLE_ARROW) в /var/www/kryl/data/www/demoproject.company/wp-content/themes/ShopProm/page-shop.php на строке 44

2019-06-24T12:12:33-07:00 CRITICAL Uncaught Error: Call to a member function get_name() on bool in /var/www/kryl/data/www/demoproject.company/wp-content/themes/ShopProm/templates/products-view.php:9
Stack trace:
#0 /var/www/kryl/data/www/demoproject.company/wp-includes/template.php(724): require()
#1 /var/www/kryl/data/www/demoproject.company/wp-includes/template.php(671): load_template('/var/www/kryl/d...', false)
#2 /var/www/kryl/data/www/demoproject.company/wp-includes/general-template.php(168): locate_template(Array, true, false)
#3 /var/www/kryl/data/www/demoproject.company/wp-content/themes/ShopProm/functions.php(762): get_template_part('templates/produ...')
#4 /var/www/kryl/data/www/demoproject.company/wp-includes/class-wp-hook.php(286): getProductsSliderShop(Array)
#5 /var/www/kryl/data/www/demoproject.company/wp-includes/class-wp-hook.php(310): WP_Hook->apply_filters('', Array)
#6 /var/www/kryl/data/www/demoproject.company/wp-includes/plugin.php(465): WP_Hook->do_action(Array)
#7 /var/www/kryl/data/www/demoproject.company/wp-content/t в /var/www/kryl/data/www/demoproject.company/wp-content/themes/ShopProm/templates/products-view.php на строке 9

2019-06-24T12:12:47-07:00 CRITICAL Uncaught Error: Call to a member function get_name() on bool in /var/www/kryl/data/www/demoproject.company/wp-content/themes/ShopProm/templates/products-view.php:9
Stack trace:
#0 /var/www/kryl/data/www/demoproject.company/wp-includes/template.php(724): require()
#1 /var/www/kryl/data/www/demoproject.company/wp-includes/template.php(671): load_template('/var/www/kryl/d...', false)
#2 /var/www/kryl/data/www/demoproject.company/wp-includes/general-template.php(168): locate_template(Array, true, false)
#3 /var/www/kryl/data/www/demoproject.company/wp-content/themes/ShopProm/functions.php(762): get_template_part('templates/produ...')
#4 /var/www/kryl/data/www/demoproject.company/wp-includes/class-wp-hook.php(286): getProductsSliderShop(Array)
#5 /var/www/kryl/data/www/demoproject.company/wp-includes/class-wp-hook.php(310): WP_Hook->apply_filters('', Array)
#6 /var/www/kryl/data/www/demoproject.company/wp-includes/plugin.php(465): WP_Hook->do_action(Array)
#7 /var/www/kryl/data/www/demoproject.company/wp-content/t в /var/www/kryl/data/www/demoproject.company/wp-content/themes/ShopProm/templates/products-view.php на строке 9

2019-06-24T12:12:57-07:00 CRITICAL Uncaught Error: Call to a member function get_name() on bool in /var/www/kryl/data/www/demoproject.company/wp-content/themes/ShopProm/templates/products-view.php:9
Stack trace:
#0 /var/www/kryl/data/www/demoproject.company/wp-includes/template.php(724): require()
#1 /var/www/kryl/data/www/demoproject.company/wp-includes/template.php(671): load_template('/var/www/kryl/d...', false)
#2 /var/www/kryl/data/www/demoproject.company/wp-includes/general-template.php(168): locate_template(Array, true, false)
#3 /var/www/kryl/data/www/demoproject.company/wp-content/themes/ShopProm/functions.php(762): get_template_part('templates/produ...')
#4 /var/www/kryl/data/www/demoproject.company/wp-includes/class-wp-hook.php(286): getProductsSliderShop(Array)
#5 /var/www/kryl/data/www/demoproject.company/wp-includes/class-wp-hook.php(310): WP_Hook->apply_filters('', Array)
#6 /var/www/kryl/data/www/demoproject.company/wp-includes/plugin.php(465): WP_Hook->do_action(Array)
#7 /var/www/kryl/data/www/demoproject.company/wp-content/t в /var/www/kryl/data/www/demoproject.company/wp-content/themes/ShopProm/templates/products-view.php на строке 9

2019-06-24T12:18:03-07:00 CRITICAL Uncaught Error: Call to a member function get_name() on bool in /var/www/kryl/data/www/demoproject.company/wp-content/themes/ShopProm/templates/products-view.php:9
Stack trace:
#0 /var/www/kryl/data/www/demoproject.company/wp-includes/template.php(724): require()
#1 /var/www/kryl/data/www/demoproject.company/wp-includes/template.php(671): load_template('/var/www/kryl/d...', false)
#2 /var/www/kryl/data/www/demoproject.company/wp-includes/general-template.php(168): locate_template(Array, true, false)
#3 /var/www/kryl/data/www/demoproject.company/wp-content/themes/ShopProm/functions.php(762): get_template_part('templates/produ...')
#4 /var/www/kryl/data/www/demoproject.company/wp-includes/class-wp-hook.php(286): getProductsSliderShop(Array)
#5 /var/www/kryl/data/www/demoproject.company/wp-includes/class-wp-hook.php(310): WP_Hook->apply_filters('', Array)
#6 /var/www/kryl/data/www/demoproject.company/wp-includes/plugin.php(465): WP_Hook->do_action(Array)
#7 /var/www/kryl/data/www/demoproject.company/wp-content/t в /var/www/kryl/data/www/demoproject.company/wp-content/themes/ShopProm/templates/products-view.php на строке 9

2019-06-24T12:18:34-07:00 CRITICAL Uncaught Error: Call to a member function get_name() on bool in /var/www/kryl/data/www/demoproject.company/wp-content/themes/ShopProm/templates/products-view.php:9
Stack trace:
#0 /var/www/kryl/data/www/demoproject.company/wp-includes/template.php(724): require()
#1 /var/www/kryl/data/www/demoproject.company/wp-includes/template.php(671): load_template('/var/www/kryl/d...', false)
#2 /var/www/kryl/data/www/demoproject.company/wp-includes/general-template.php(168): locate_template(Array, true, false)
#3 /var/www/kryl/data/www/demoproject.company/wp-content/themes/ShopProm/functions.php(762): get_template_part('templates/produ...')
#4 /var/www/kryl/data/www/demoproject.company/wp-includes/class-wp-hook.php(286): getProductsSliderShop(Array)
#5 /var/www/kryl/data/www/demoproject.company/wp-includes/class-wp-hook.php(310): WP_Hook->apply_filters('', Array)
#6 /var/www/kryl/data/www/demoproject.company/wp-includes/plugin.php(465): WP_Hook->do_action(Array)
#7 /var/www/kryl/data/www/demoproject.company/wp-content/t в /var/www/kryl/data/www/demoproject.company/wp-content/themes/ShopProm/templates/products-view.php на строке 9

2019-06-24T12:19:00-07:00 CRITICAL Uncaught Error: Call to a member function get_name() on bool in /var/www/kryl/data/www/demoproject.company/wp-content/themes/ShopProm/templates/products-view.php:9
Stack trace:
#0 /var/www/kryl/data/www/demoproject.company/wp-includes/template.php(724): require()
#1 /var/www/kryl/data/www/demoproject.company/wp-includes/template.php(671): load_template('/var/www/kryl/d...', false)
#2 /var/www/kryl/data/www/demoproject.company/wp-includes/general-template.php(168): locate_template(Array, true, false)
#3 /var/www/kryl/data/www/demoproject.company/wp-content/themes/ShopProm/functions.php(762): get_template_part('templates/produ...')
#4 /var/www/kryl/data/www/demoproject.company/wp-includes/class-wp-hook.php(286): getProductsSliderShop(Array)
#5 /var/www/kryl/data/www/demoproject.company/wp-includes/class-wp-hook.php(310): WP_Hook->apply_filters('', Array)
#6 /var/www/kryl/data/www/demoproject.company/wp-includes/plugin.php(465): WP_Hook->do_action(Array)
#7 /var/www/kryl/data/www/demoproject.company/wp-content/t в /var/www/kryl/data/www/demoproject.company/wp-content/themes/ShopProm/templates/products-view.php на строке 9

2019-06-24T12:19:34-07:00 CRITICAL Uncaught Error: Call to a member function get_name() on bool in /var/www/kryl/data/www/demoproject.company/wp-content/themes/ShopProm/templates/products-view.php:9
Stack trace:
#0 /var/www/kryl/data/www/demoproject.company/wp-includes/template.php(724): require()
#1 /var/www/kryl/data/www/demoproject.company/wp-includes/template.php(671): load_template('/var/www/kryl/d...', false)
#2 /var/www/kryl/data/www/demoproject.company/wp-includes/general-template.php(168): locate_template(Array, true, false)
#3 /var/www/kryl/data/www/demoproject.company/wp-content/themes/ShopProm/functions.php(762): get_template_part('templates/produ...')
#4 /var/www/kryl/data/www/demoproject.company/wp-includes/class-wp-hook.php(286): getProductsSliderShop(Array)
#5 /var/www/kryl/data/www/demoproject.company/wp-includes/class-wp-hook.php(310): WP_Hook->apply_filters('', Array)
#6 /var/www/kryl/data/www/demoproject.company/wp-includes/plugin.php(465): WP_Hook->do_action(Array)
#7 /var/www/kryl/data/www/demoproject.company/wp-content/t в /var/www/kryl/data/www/demoproject.company/wp-content/themes/ShopProm/templates/products-view.php на строке 9

